[{"accountID":1,"iban":"GL80 4681 8313 0329 19","balance":15,"currency":"VEF","userID":43,"transactions":[{"transID":1,"date":"9/19/2019","amount":54,"description":""},{"transID":2,"date":"7/30/2019","amount":46,"description":""},{"transID":3,"date":"3/25/2019","amount":30,"description":""}]},
{"accountID":2,"iban":"LB43 6760 GXE7 INZR IJKN MCAX 3L7Z","balance":35,"currency":"SDG","userID":37,"transactions":[{"transID":1,"date":"11/23/2019","amount":67,"description":""},{"transID":2,"date":"3/3/2020","amount":13,"description":""},{"transID":3,"date":"2/26/2020","amount":20,"description":""},{"transID":4,"date":"12/10/2019","amount":45,"description":""}]},
{"accountID":3,"iban":"GL49 4133 9329 1795 61","balance":63,"currency":"JPY","userID":13,"transactions":[{"transID":1,"date":"7/10/2019","amount":20,"description":""},{"transID":2,"date":"8/25/2019","amount":61,"description":""},{"transID":3,"date":"10/31/2019","amount":64,"description":""},{"transID":4,"date":"1/14/2020","amount":100,"description":""},{"transID":5,"date":"1/24/2020","amount":39,"description":""},{"transID":6,"date":"10/8/2019","amount":82,"description":""},{"transID":7,"date":"1/22/2020","amount":54,"description":""},{"transID":8,"date":"12/7/2019","amount":10,"description":""}]},
{"accountID":4,"iban":"IE29 SISS 0273 6204 4960 94","balance":58,"currency":"YER","userID":100,"transactions":[{"transID":1,"date":"7/16/2019","amount":30,"description":""},{"transID":2,"date":"5/11/2019","amount":25,"description":""}]},
{"accountID":5,"iban":"CH86 0426 1ZB5 K2KY S6BU 5","balance":5,"currency":"DKK","userID":22,"transactions":[{"transID":1,"date":"4/19/2019","amount":14,"description":""},{"transID":2,"date":"6/25/2019","amount":41,"description":""},{"transID":3,"date":"2/28/2020","amount":87,"description":""},{"transID":4,"date":"12/22/2019","amount":21,"description":""},{"transID":5,"date":"5/31/2019","amount":98,"description":""},{"transID":6,"date":"3/31/2019","amount":74,"description":""},{"transID":7,"date":"8/7/2019","amount":74,"description":""}]},
{"accountID":6,"iban":"PK91 KWXX GFWR SQW7 PDJ4 S1VP","balance":87,"currency":"PHP","userID":32,"transactions":[{"transID":1,"date":"3/16/2020","amount":88,"description":""},{"transID":2,"date":"6/12/2019","amount":79,"description":""},{"transID":3,"date":"7/7/2019","amount":63,"description":""},{"transID":4,"date":"4/26/2019","amount":7,"description":""},{"transID":5,"date":"11/7/2019","amount":56,"description":""},{"transID":6,"date":"4/30/2019","amount":68,"description":""},{"transID":7,"date":"11/21/2019","amount":23,"description":""},{"transID":8,"date":"9/25/2019","amount":15,"description":""}]},
{"accountID":7,"iban":"AL48 7431 9783 EA3U U7CG TZHB SWW0","balance":70,"currency":"SEK","userID":75,"transactions":[{"transID":1,"date":"1/27/2020","amount":41,"description":""}]},
{"accountID":8,"iban":"FR80 3759 5856 51L5 GNLY IDEW V59","balance":95,"currency":"PHP","userID":31,"transactions":[{"transID":1,"date":"2/19/2020","amount":79,"description":""},{"transID":2,"date":"1/28/2020","amount":25,"description":""},{"transID":3,"date":"3/30/2019","amount":54,"description":""},{"transID":4,"date":"4/12/2019","amount":36,"description":""}]},
{"accountID":9,"iban":"HR70 2875 3824 9633 1988 3","balance":41,"currency":"MYR","userID":13,"transactions":[{"transID":1,"date":"11/18/2019","amount":40,"description":""},{"transID":2,"date":"7/29/2019","amount":88,"description":""},{"transID":3,"date":"10/15/2019","amount":5,"description":""},{"transID":4,"date":"8/28/2019","amount":63,"description":""}]},
{"accountID":10,"iban":"LV16 JYNZ YAAO 7DH9 QQH2 P","balance":46,"currency":"CNY","userID":26,"transactions":[{"transID":1,"date":"8/6/2019","amount":50,"description":""}]},
{"accountID":11,"iban":"NL36 CPJB 5681 7667 28","balance":96,"currency":"EUR","userID":28,"transactions":[{"transID":1,"date":"11/25/2019","amount":8,"description":""},{"transID":2,"date":"1/3/2020","amount":51,"description":""}]},
{"accountID":12,"iban":"IL87 6930 1133 6905 0513 502","balance":69,"currency":"EUR","userID":80,"transactions":[{"transID":1,"date":"9/10/2019","amount":47,"description":""}]},
{"accountID":13,"iban":"MK53 795B EXVR O6RJ 079","balance":74,"currency":"NGN","userID":39,"transactions":[{"transID":1,"date":"2/10/2020","amount":35,"description":""},{"transID":2,"date":"5/8/2019","amount":97,"description":""},{"transID":3,"date":"7/23/2019","amount":61,"description":""},{"transID":4,"date":"5/27/2019","amount":18,"description":""},{"transID":5,"date":"1/8/2020","amount":52,"description":""},{"transID":6,"date":"11/9/2019","amount":83,"description":""},{"transID":7,"date":"11/10/2019","amount":14,"description":""},{"transID":8,"date":"8/1/2019","amount":15,"description":""},{"transID":9,"date":"6/29/2019","amount":9,"description":""}]},
{"accountID":14,"iban":"IL82 3833 0100 5260 4389 796","balance":77,"currency":"RSD","userID":18,"transactions":[{"transID":1,"date":"11/6/2019","amount":33,"description":""},{"transID":2,"date":"3/20/2019","amount":81,"description":""},{"transID":3,"date":"3/3/2020","amount":37,"description":""},{"transID":4,"date":"6/14/2019","amount":14,"description":""},{"transID":5,"date":"9/30/2019","amount":79,"description":""},{"transID":6,"date":"11/10/2019","amount":91,"description":""},{"transID":7,"date":"4/17/2019","amount":74,"description":""}]},
{"accountID":15,"iban":"BH58 YRPF OOTO PKXS M3UP YB","balance":71,"currency":"USD","userID":57,"transactions":[{"transID":1,"date":"6/5/2019","amount":48,"description":""}]},
{"accountID":16,"iban":"BG67 QTTW 0459 56OI ZYI4 RX","balance":68,"currency":"PHP","userID":54,"transactions":[{"transID":1,"date":"2/17/2020","amount":85,"description":""},{"transID":2,"date":"6/19/2019","amount":20,"description":""},{"transID":3,"date":"12/3/2019","amount":67,"description":""},{"transID":4,"date":"2/1/2020","amount":52,"description":""},{"transID":5,"date":"6/30/2019","amount":56,"description":""},{"transID":6,"date":"10/19/2019","amount":61,"description":""},{"transID":7,"date":"9/9/2019","amount":20,"description":""},{"transID":8,"date":"5/15/2019","amount":2,"description":""}]},
{"accountID":17,"iban":"TN93 7696 3182 3892 2972 2388","balance":38,"currency":"PHP","userID":1,"transactions":[{"transID":1,"date":"4/11/2019","amount":90,"description":""},{"transID":2,"date":"3/23/2019","amount":13,"description":""},{"transID":3,"date":"4/25/2019","amount":20,"description":""}]},
{"accountID":18,"iban":"GI94 HNTO 9QFQ N3BI URUK SKW","balance":88,"currency":"CNY","userID":60,"transactions":[{"transID":1,"date":"5/7/2019","amount":58,"description":""},{"transID":2,"date":"2/20/2020","amount":7,"description":""},{"transID":3,"date":"3/30/2019","amount":15,"description":""},{"transID":4,"date":"10/22/2019","amount":24,"description":""},{"transID":5,"date":"1/23/2020","amount":24,"description":""}]},
{"accountID":19,"iban":"CY49 7873 4338 Q68V 5NT9 NNFG JGQZ","balance":39,"currency":"UAH","userID":26,"transactions":[{"transID":1,"date":"5/15/2019","amount":91,"description":""},{"transID":2,"date":"1/14/2020","amount":98,"description":""},{"transID":3,"date":"6/12/2019","amount":48,"description":""},{"transID":4,"date":"9/3/2019","amount":97,"description":""}]},
{"accountID":20,"iban":"FI76 7168 5149 4428 86","balance":8,"currency":"GBP","userID":52,"transactions":[{"transID":1,"date":"2/14/2020","amount":49,"description":""},{"transID":2,"date":"4/30/2019","amount":5,"description":""},{"transID":3,"date":"1/1/2020","amount":1,"description":""},{"transID":4,"date":"12/4/2019","amount":33,"description":""},{"transID":5,"date":"11/2/2019","amount":95,"description":""},{"transID":6,"date":"6/28/2019","amount":3,"description":""},{"transID":7,"date":"8/3/2019","amount":10,"description":""},{"transID":8,"date":"9/9/2019","amount":80,"description":""}]},
{"accountID":21,"iban":"KZ67 513T JHJO NFD5 3GQP","balance":100,"currency":"PEN","userID":50,"transactions":[{"transID":1,"date":"11/18/2019","amount":5,"description":""},{"transID":2,"date":"11/10/2019","amount":46,"description":""},{"transID":3,"date":"12/12/2019","amount":25,"description":""},{"transID":4,"date":"6/3/2019","amount":92,"description":""}]},
{"accountID":22,"iban":"KW92 ZIND 7QAS EL54 XXQS 6ENH TVQW GJ","balance":15,"currency":"IDR","userID":85,"transactions":[{"transID":1,"date":"1/27/2020","amount":13,"description":""},{"transID":2,"date":"3/17/2020","amount":44,"description":""}]},
{"accountID":23,"iban":"FR79 0157 9855 14WU XKDD 9MTS Q28","balance":81,"currency":"ETB","userID":69,"transactions":[{"transID":1,"date":"10/19/2019","amount":34,"description":""},{"transID":2,"date":"11/30/2019","amount":16,"description":""},{"transID":3,"date":"1/16/2020","amount":98,"description":""}]},
{"accountID":24,"iban":"KW05 JWOX KAFD KGRL MNCW B3TE NNQY W1","balance":17,"currency":"NOK","userID":47,"transactions":[{"transID":1,"date":"11/26/2019","amount":24,"description":""},{"transID":2,"date":"7/23/2019","amount":23,"description":""},{"transID":3,"date":"2/22/2020","amount":37,"description":""},{"transID":4,"date":"6/17/2019","amount":90,"description":""},{"transID":5,"date":"2/6/2020","amount":90,"description":""},{"transID":6,"date":"12/12/2019","amount":17,"description":""},{"transID":7,"date":"4/17/2019","amount":25,"description":""},{"transID":8,"date":"7/12/2019","amount":22,"description":""},{"transID":9,"date":"11/30/2019","amount":18,"description":""}]},
{"accountID":25,"iban":"BH98 ASRQ 53XE RQFC ICUY CZ","balance":91,"currency":"RUB","userID":91,"transactions":[{"transID":1,"date":"7/5/2019","amount":32,"description":""},{"transID":2,"date":"3/18/2020","amount":75,"description":""},{"transID":3,"date":"2/9/2020","amount":32,"description":""},{"transID":4,"date":"10/9/2019","amount":99,"description":""},{"transID":5,"date":"6/2/2019","amount":30,"description":""},{"transID":6,"date":"3/13/2020","amount":39,"description":""}]},
{"accountID":26,"iban":"FR45 2690 0375 14BK GN3S QI5V A97","balance":65,"currency":"CNY","userID":77,"transactions":[{"transID":1,"date":"1/9/2020","amount":62,"description":""},{"transID":2,"date":"11/21/2019","amount":75,"description":""},{"transID":3,"date":"1/22/2020","amount":96,"description":""},{"transID":4,"date":"4/30/2019","amount":11,"description":""},{"transID":5,"date":"5/9/2019","amount":57,"description":""},{"transID":6,"date":"10/31/2019","amount":89,"description":""},{"transID":7,"date":"12/4/2019","amount":6,"description":""}]},
{"accountID":27,"iban":"BA80 1337 2780 3482 9284","balance":47,"currency":"MKD","userID":14,"transactions":[{"transID":1,"date":"2/26/2020","amount":18,"description":""},{"transID":2,"date":"3/21/2019","amount":18,"description":""},{"transID":3,"date":"11/6/2019","amount":54,"description":""},{"transID":4,"date":"9/10/2019","amount":4,"description":""}]},
{"accountID":28,"iban":"VG65 KBLA 1188 1305 9623 2074","balance":10,"currency":"VND","userID":80,"transactions":[{"transID":1,"date":"7/31/2019","amount":65,"description":""}]},
{"accountID":29,"iban":"SM77 B161 2200 786E LTXD 8LBX T6N","balance":76,"currency":"CNY","userID":87,"transactions":[{"transID":1,"date":"4/24/2019","amount":2,"description":""},{"transID":2,"date":"8/1/2019","amount":32,"description":""},{"transID":3,"date":"12/18/2019","amount":38,"description":""},{"transID":4,"date":"7/19/2019","amount":42,"description":""},{"transID":5,"date":"11/19/2019","amount":41,"description":""}]},
{"accountID":30,"iban":"RO23 QOEF FDZM 9ES8 OZUH QOBN","balance":2,"currency":"VND","userID":63,"transactions":[{"transID":1,"date":"8/8/2019","amount":96,"description":""},{"transID":2,"date":"1/29/2020","amount":40,"description":""},{"transID":3,"date":"10/12/2019","amount":72,"description":""},{"transID":4,"date":"6/6/2019","amount":14,"description":""},{"transID":5,"date":"5/20/2019","amount":82,"description":""},{"transID":6,"date":"9/21/2019","amount":27,"description":""},{"transID":7,"date":"11/22/2019","amount":86,"description":""},{"transID":8,"date":"7/25/2019","amount":20,"description":""},{"transID":9,"date":"11/4/2019","amount":55,"description":""}]}]